﻿ABA,2025,2030,2035,2040,2045,2050
Alberta.a.biomass,341,319.1,256.1,256.1,19,10
Alberta.a.coal_pre2025,0,0,0,0,0,0
Alberta.a.coal_ccs_pre2025,0,0,0,0,0,0
Alberta.a.diesel_pre2025,0,0,0,0,0,0
Alberta.a.gasCC_pre2025,13520.3,11991.3,7910.3,4199.3,3715.3,2184
Alberta.a.gasCC_ccs_pre2025,0,0,0,0,0,0
Alberta.a.gasSC_pre2025,1329.1,1275.1,1051,752,382,42
Alberta.a.hydro_daily,781,781,781,781,781,781
Alberta.a.hydro_monthly,0,0,0,0,0,0
Alberta.a.hydro_run,143.4,143.4,143.4,143.4,143.4,143.4
Alberta.a.nuclear,0,0,0,0,0,0
Alberta.a.SMR,0,0,0,0,0,0
Alberta.a.solar,2421,2421,2421,2421,2421,2387
Alberta.a.wind_ons,5355.6,5355.6,5018.2,4739.2,3889.3,3540.7
British Columbia.a.biomass,962.76,892.7,708.6,608.7,341,112
British Columbia.a.coal_pre2025,0,0,0,0,0,0
British Columbia.a.coal_ccs_pre2025,0,0,0,0,0,0
British Columbia.a.diesel_pre2025,0,0,0,0,0,0
British Columbia.a.gasCC_pre2025,200.2,120,0,0,0,0
British Columbia.a.gasCC_ccs_pre2025,0,0,0,0,0,0
British Columbia.a.gasSC_pre2025,46,46,0,0,0,0
British Columbia.a.hydro_daily,4198.49,4198.49,4198.49,4198.49,4198.49,4198.49
British Columbia.a.hydro_monthly,11249,11249,11249,11249,11249,11249
British Columbia.a.hydro_run,1700.34,1700.34,1700.34,1700.34,1700.34,1700.34
British Columbia.a.nuclear,0,0,0,0,0,0
British Columbia.a.SMR,0,0,0,0,0,0
British Columbia.a.solar,1.1,1.1,1.1,1.1,0,0
British Columbia.a.wind_ons,747,747,545.8,259.6,75,75
Manitoba.a.biomass,0,0,0,0,0,0
Manitoba.a.coal_pre2025,0,0,0,0,0,0
Manitoba.a.coal_ccs_pre2025,0,0,0,0,0,0
Manitoba.a.diesel_pre2025,0,0,0,0,0,0
Manitoba.a.gasCC_pre2025,0,0,0,0,0,0
Manitoba.a.gasCC_ccs_pre2025,0,0,0,0,0,0
Manitoba.a.gasSC_pre2025,280,280,280,280,0,0
Manitoba.a.hydro_daily,1284,1284,1284,1284,1284,1284
Manitoba.a.hydro_monthly,4648,4648,4648,4648,4648,4648
Manitoba.a.hydro_run,10,10,10,10,10,10
Manitoba.a.nuclear,0,0,0,0,0,0
Manitoba.a.SMR,0,0,0,0,0,0
Manitoba.a.solar,0,0,0,0,0,0
Manitoba.a.wind_ons,258.45,258.45,0,0,0,0
New Brunswick.a.biomass,120.8,120.8,120.8,120.8,1.8,1.8
New Brunswick.a.coal_pre2025,466,466,466,466,0,0
New Brunswick.a.coal_ccs_pre2025,0,0,0,0,0,0
New Brunswick.a.diesel_pre2025,1472,1472,977,977,0,0
New Brunswick.a.gasCC_pre2025,388,0,0,0,0,0
New Brunswick.a.gasCC_ccs_pre2025,0,0,0,0,0,0
New Brunswick.a.gasSC_pre2025,28,0,0,0,0,0
New Brunswick.a.hydro_daily,878,878,878,878,878,878
New Brunswick.a.hydro_monthly,0,0,0,0,0,0
New Brunswick.a.hydro_run,34.1,34.1,34.1,34.1,34.1,34.1
New Brunswick.a.nuclear,660,660,660,660,0,0
New Brunswick.a.SMR,0,0,0,0,0,0
New Brunswick.a.solar,0,0,0,0,0,0
New Brunswick.a.wind_ons,355.45,355.45,256.45,211.45,209.1,20
Newfoundland and Labrador.a.biomass,0,0,0,0,0,0
Newfoundland and Labrador.a.coal_pre2025,0,0,0,0,0,0
Newfoundland and Labrador.a.coal_ccs_pre2025,0,0,0,0,0,0
Newfoundland and Labrador.a.diesel_pre2025,781.7,753.7,258.7,256.2,123,0
Newfoundland and Labrador.a.gasCC_pre2025,0,0,0,0,0,0
Newfoundland and Labrador.a.gasCC_ccs_pre2025,0,0,0,0,0,0
Newfoundland and Labrador.a.gasSC_pre2025,0,0,0,0,0,0
Newfoundland and Labrador.a.hydro_daily,313.99,313.99,313.99,313.99,313.99,313.99
Newfoundland and Labrador.a.hydro_monthly,737.4,737.4,737.4,737.4,737.4,737.4
Newfoundland and Labrador.a.hydro_run,0,0,0,0,0,0
Newfoundland and Labrador.a.nuclear,0,0,0,0,0,0
Newfoundland and Labrador.a.SMR,0,0,0,0,0,0
Newfoundland and Labrador.a.solar,0,0,0,0,0,0
Newfoundland and Labrador.a.wind_ons,54,0,0,0,0,0
Newfoundland and Labrador.b.biomass,0,0,0,0,0,0
Newfoundland and Labrador.b.coal_pre2025,0,0,0,0,0,0
Newfoundland and Labrador.b.coal_ccs_pre2025,0,0,0,0,0,0
Newfoundland and Labrador.b.diesel_pre2025,25,25,0,0,0,0
Newfoundland and Labrador.b.gasCC_pre2025,0,0,0,0,0,0
Newfoundland and Labrador.b.gasCC_ccs_pre2025,0,0,0,0,0,0
Newfoundland and Labrador.b.gasSC_pre2025,0,0,0,0,0,0
Newfoundland and Labrador.b.hydro_daily,0,0,0,0,0,0
Newfoundland and Labrador.b.hydro_monthly,6251.95,6251.95,6251.95,6251.95,6251.95,6251.95
Newfoundland and Labrador.b.hydro_run,0,0,0,0,0,0
Newfoundland and Labrador.b.nuclear,0,0,0,0,0,0
Newfoundland and Labrador.b.SMR,0,0,0,0,0,0
Newfoundland and Labrador.b.solar,0,0,0,0,0,0
Newfoundland and Labrador.b.wind_ons,0,0,0,0,0,0
Nova Scotia.a.biomass,95,63.8,0,0,0,0
Nova Scotia.a.coal_pre2025,928,928,763,0,0,0
Nova Scotia.a.coal_ccs_pre2025,0,0,0,0,0,0
Nova Scotia.a.diesel_pre2025,563,363,363,63,63,63
Nova Scotia.a.gasCC_pre2025,49,49,49,49,0,0
Nova Scotia.a.gasCC_ccs_pre2025,0,0,0,0,0,0
Nova Scotia.a.gasSC_pre2025,94,94,47,0,0,0
Nova Scotia.a.hydro_daily,370.45,370.45,370.45,370.45,370.45,370.45
Nova Scotia.a.hydro_monthly,0,0,0,0,0,0
Nova Scotia.a.hydro_run,0,0,0,0,0,0
Nova Scotia.a.nuclear,0,0,0,0,0,0
Nova Scotia.a.SMR,0,0,0,0,0,0
Nova Scotia.a.solar,0,0,0,0,0,0
Nova Scotia.a.wind_ons,934.76,898.96,586.76,316,316,166
Ontario.a.biomass,0,0,0,0,0,0
Ontario.a.coal_pre2025,0,0,0,0,0,0
Ontario.a.coal_ccs_pre2025,0,0,0,0,0,0
Ontario.a.diesel_pre2025,0,0,0,0,0,0
Ontario.a.gasCC_pre2025,3268,810,377,0,0,0
Ontario.a.gasCC_ccs_pre2025,0,0,0,0,0,0
Ontario.a.gasSC_pre2025,4747.8,2460.8,1162,978,0,0
Ontario.a.hydro_daily,1418,1418,1418,1418,1418,1418
Ontario.a.hydro_monthly,0,0,0,0,0,0
Ontario.a.hydro_run,1971,1971,1971,1971,1971,1971
Ontario.a.nuclear,10377,7275,7275,7275,5717,5717
Ontario.a.SMR,0,0,0,0,0,0
Ontario.a.solar,408,408,398,0,0,0
Ontario.a.wind_ons,4134.42,3138.62,1416.92,0,0,0
Ontario.b.biomass,0,0,0,0,0,0
Ontario.b.coal_pre2025,0,0,0,0,0,0
Ontario.b.coal_ccs_pre2025,0,0,0,0,0,0
Ontario.b.diesel_pre2025,0,0,0,0,0,0
Ontario.b.gasCC_pre2025,122,122,122,0,0,0
Ontario.b.gasCC_ccs_pre2025,0,0,0,0,0,0
Ontario.b.gasSC_pre2025,73,73,34,0,0,0
Ontario.b.hydro_daily,2939.5,2939.5,2939.5,2939.5,2939.5,2939.5
Ontario.b.hydro_monthly,0,0,0,0,0,0
Ontario.b.hydro_run,1135.4,1135.4,1135.4,1135.4,1135.4,1135.4
Ontario.b.nuclear,0,0,0,0,0,0
Ontario.b.SMR,0,0,0,0,0,0
Ontario.b.solar,70,70,40,0,0,0
Ontario.b.wind_ons,830.2,641.2,482.3,400,0,0
Prince Edward Island.a.biomass,0,0,0,0,0,0
Prince Edward Island.a.coal_pre2025,0,0,0,0,0,0
Prince Edward Island.a.coal_ccs_pre2025,0,0,0,0,0,0
Prince Edward Island.a.diesel_pre2025,104,89,49,0,0,0
Prince Edward Island.a.gasCC_pre2025,0,0,0,0,0,0
Prince Edward Island.a.gasCC_ccs_pre2025,0,0,0,0,0,0
Prince Edward Island.a.gasSC_pre2025,0,0,0,0,0,0
Prince Edward Island.a.hydro_daily,0,0,0,0,0,0
Prince Edward Island.a.hydro_monthly,0,0,0,0,0,0
Prince Edward Island.a.hydro_run,0,0,0,0,0,0
Prince Edward Island.a.nuclear,0,0,0,0,0,0
Prince Edward Island.a.SMR,0,0,0,0,0,0
Prince Edward Island.a.solar,31,31,31,31,0,0
Prince Edward Island.a.wind_ons,220,70,30,30,0,0
Quebec.a.biomass,139.05,129.15,75.55,70.75,27.75,9.75
Quebec.a.coal_pre2025,0,0,0,0,0,0
Quebec.a.coal_ccs_pre2025,0,0,0,0,0,0
Quebec.a.diesel_pre2025,0,0,0,0,0,0
Quebec.a.gasCC_pre2025,547,547,547,0,0,0
Quebec.a.gasCC_ccs_pre2025,0,0,0,0,0,0
Quebec.a.gasSC_pre2025,0,0,0,0,0,0
Quebec.a.hydro_daily,620,620,620,620,620,620
Quebec.a.hydro_monthly,55,55,55,55,55,55
Quebec.a.hydro_run,4187.9,4187.9,4187.9,4187.9,4187.9,4187.9
Quebec.a.nuclear,0,0,0,0,0,0
Quebec.a.SMR,0,0,0,0,0,0
Quebec.a.solar,0,0,0,0,0,0
Quebec.a.wind_ons,3191,2630.2,794,24,0,0
Quebec.b.biomass,279.3,279.3,194.3,187.3,115.5,55.3
Quebec.b.coal_pre2025,0,0,0,0,0,0
Quebec.b.coal_ccs_pre2025,0,0,0,0,0,0
Quebec.b.diesel_pre2025,0,0,0,0,0,0
Quebec.b.gasCC_pre2025,0,0,0,0,0,0
Quebec.b.gasCC_ccs_pre2025,0,0,0,0,0,0
Quebec.b.gasSC_pre2025,0,0,0,0,0,0
Quebec.b.hydro_daily,11049.5,11049.5,11049.5,11049.5,11049.5,11049.5
Quebec.b.hydro_monthly,23146,23146,23146,23146,23146,23146
Quebec.b.hydro_run,1265.6,1265.6,1265.6,1265.6,1265.6,1265.6
Quebec.b.nuclear,0,0,0,0,0,0
Quebec.b.SMR,0,0,0,0,0,0
Quebec.b.solar,0,0,0,0,0,0
Quebec.b.wind_ons,936.7,2136.7,1447,1423.5,1400,1400
Saskatchewan.a.biomass,57,37,37,37,37,37
Saskatchewan.a.coal_pre2025,1142,0,0,0,0,0
Saskatchewan.a.coal_ccs_pre2025,139,139,139,139,0,0
Saskatchewan.a.diesel_pre2025,0,0,0,0,0,0
Saskatchewan.a.gasCC_pre2025,1792,1564,1147,1147,905,350
Saskatchewan.a.gasCC_ccs_pre2025,0,0,0,0,0,0
Saskatchewan.a.gasSC_pre2025,676,676,676,584,46,46
Saskatchewan.a.hydro_daily,520,520,520,520,520,520
Saskatchewan.a.hydro_monthly,0,0,0,0,0,0
Saskatchewan.a.hydro_run,13,13,13,13,13,13
Saskatchewan.a.nuclear,0,0,0,0,0,0
Saskatchewan.a.SMR,0,0,0,0,0,0
Saskatchewan.a.solar,40,40,40,40,0,0
Saskatchewan.a.wind_ons,805,655,629,586,200,200
