﻿location,2025,2030,2035,2040,2045,2050
588.solar,1.1,1.1,1.1,0,0,0
649.solar,17,17,17,17,17,0
652.solar,164.5,164.5,164.5,164.5,164.5,164.5
673.solar,67,67,67,67,67,67
675.solar,227,227,227,227,227,227
677.solar,30,30,30,30,30,30
697.solar,542.5,542.5,542.5,542.5,542.5,542.5
698.solar,24,24,24,24,24,24
718.solar,565,565,565,565,565,548
719.solar,306,306,306,306,306,284
720.solar,107,107,107,107,107,82
740.solar,21,21,21,21,21,21
741.solar,46,46,46,46,46,46
742.solar,50,50,50,50,50,50
762.solar,23,23,23,23,23,23
785.solar,231,231,231,231,231,231
895.solar,10,10,10,10,0,0
983.solar,20,20,20,20,0,0
1006.solar,10,10,10,10,0,0
1727.solar,50,50,50,0,0,0
1755.solar,80,0,0,0,0,0
1771.solar,10,10,0,0,0,0
1800.solar,30,30,0,0,0,0
1810.solar,50,50,50,0,0,0
1841.solar,44,44,44,0,0,0
1861.solar,20,20,0,0,0,0
1862.solar,10,10,0,0,0,0
1871.solar,100,100,0,0,0,0
2002.solar,54,54,54,0,0,0
2035.solar,100,100,0,0,0,0
2644.solar,31,31,31,31,0,0
162.wind_ons,99.2,99.2,0,0,0,0
356.wind_ons,144,144,144,0,0,0
378.wind_ons,30,30,30,30,30,30
379.wind_ons,199.6,199.6,199.6,15,15,15
401.wind_ons,142.2,142.2,142.2,0,0,0
422.wind_ons,102,102,0,0,0,0
434.wind_ons,30,30,30,30,30,0
654.wind_ons,538.9,538.9,339.5,276.5,147,0
655.wind_ons,46.2,46.2,46.2,46.2,46.2,46.2
672.wind_ons,81.6,81.6,81.6,0,0,0
676.wind_ons,282,282,204,0,0,0
677.wind_ons,210.3,210.3,210.3,210.3,206.4,206.4
695.wind_ons,88,88,88,88,0,0
697.wind_ons,300,300,300,300,0,0
699.wind_ons,30,30,0,0,0,0
715.wind_ons,150,150,150,150,0,0
716.wind_ons,145,145,145,145,145,145
717.wind_ons,120,120,120,120,120,120
720.wind_ons,250,250,220,140,140,140
738.wind_ons,130,130,130,130,130,130
762.wind_ons,361.5,361.5,361.5,361.5,361.5,361.5
764.wind_ons,991,991,991,991,991,789.4
780.wind_ons,28.9,28.9,28.9,28.9,0,0
782.wind_ons,298,298,298,298,298,298
783.wind_ons,275.8,275.8,275.8,275.8,275.8,275.8
784.wind_ons,100,100,100,100,100,100
786.wind_ons,928.4,928.4,928.4,928.4,928.4,928.4
851.wind_ons,22,22,0,0,0,0
894.wind_ons,10,10,10,0,0,0
895.wind_ons,349,349,326,176,0,0
940.wind_ons,200,200,200,0,0,0
1049.wind_ons,20,20,20,0,0,0
1093.wind_ons,26,26,0,0,0,0
1205.wind_ons,120.45,120.45,0,0,0,0
1249.wind_ons,138,138,0,0,0,0
1524.wind_ons,98.9,98.9,0,0,0,0
1660.wind_ons,57,57,0,0,0,0
1661.wind_ons,189,0,0,0,0,0
1680.wind_ons,25.3,25.3,0,0,0,0
1727.wind_ons,365.6,314.6,100,0,0,0
1749.wind_ons,60,60,0,0,0,0
1754.wind_ons,249,249,0,0,0,0
1755.wind_ons,119.12,119.12,99.12,0,0,0
1756.wind_ons,898,606,60,60,0,0
1781.wind_ons,445.8,180,0,0,0,0
1782.wind_ons,309.6,270,0,0,0,0
1783.wind_ons,374.7,374.7,99.3,0,0,0
1785.wind_ons,98.9,0,0,0,0,0
1813.wind_ons,99,0,0,0,0,0
1835.wind_ons,300,300,300,0,0,0
1838.wind_ons,290.9,91.4,0,0,0,0
1839.wind_ons,40.1,40.1,0,0,0,0
1841.wind_ons,104.4,104.4,0,0,0,0
1871.wind_ons,526.4,526.4,253,0,0,0
2035.wind_ons,270.8,73,73,0,0,0
2098.wind_ons,100,100,100,100,0,0
2189.wind_ons,120,120,18.8,18.8,0,0
2218.wind_ons,24.6,24.6,24.6,0,0,0
2273.wind_ons,23.5,23.5,23.5,0,0,0
2277.wind_ons,235.7,235.7,0,0,0,0
2304.wind_ons,350,350,0,0,0,0
2305.wind_ons,363.2,363.2,0,0,0,0
2307.wind_ons,171.2,171.2,147.2,0,0,0
2336.wind_ons,174,174,0,0,0,0
2338.wind_ons,104.6,104.6,0,0,0,0
2390.wind_ons,224.4,224.4,224.4,0,0,0
2391.wind_ons,99.8,99.8,0,0,0,0
2441.wind_ons,266.3,23.5,0,0,0,0
2442.wind_ons,345.8,345.8,0,0,0,0
2471.wind_ons,335.7,335.7,74.8,0,0,0
2502.wind_ons,149.3,149.3,149.3,0,0,0
2503.wind_ons,99,0,0,0,0,0
2534.wind_ons,100.5,100.5,0,0,0,0
2536.wind_ons,177.3,67.8,0,0,0,0
2543.wind_ons,30,30,0,0,0,0
2545.wind_ons,10.85,10.85,1.99,0,0,0
2569.wind_ons,211.5,211.5,0,0,0,0
2570.wind_ons,182,74,0,0,0,0
2576.wind_ons,20,20,20,20,0,0
2578.wind_ons,4,4,0,0,0,0
2604.wind_ons,159,58.5,0,0,0,0
2605.wind_ons,4.1,0,0,0,0,0
2607.wind_ons,45,45,0,0,0,0
2609.wind_ons,99,0,0,0,0,0
2611.wind_ons,185,18,18,0,0,0
2614.wind_ons,4,4,0,0,0,0
2642.wind_ons,19,10,0,0,0,0
2644.wind_ons,12,0,0,0,0,0
2645.wind_ons,38.1,38.1,6,0,0,0
2646.wind_ons,1.99,1.99,1.99,0,0,0
2647.wind_ons,144,144,24,0,0,0
2678.wind_ons,55.8,52.2,0,0,0,0
2679.wind_ons,23.2,23.2,6,0,0,0
2680.wind_ons,25.15,25.15,14.85,0,0,0
2709.wind_ons,65.39,12.99,1.6,0,0,0
2710.wind_ons,6.98,6.98,0,0,0,0
2737.wind_ons,90,60,30,30,0,0
2738.wind_ons,78.9,72.9,0,0,0,0
2740.wind_ons,1.5,1.5,0,0,0,0
2764.wind_ons,1.99,1.99,0,0,0,0
2765.wind_ons,27.09,4.29,0,0,0,0
2790.wind_ons,3.69,3.69,1.7,0,0,0
2791.wind_ons,1.99,1.99,0,0,0,0
2792.wind_ons,13.8,13.8,0,0,0,0
2814.wind_ons,31.6,31.6,5.4,0,0,0
2836.wind_ons,3.9,3.9,0,0,0,0
2837.wind_ons,2.3,2.3,0,0,0,0
2957.wind_ons,27,0,0,0,0,0
2984.wind_ons,27,0,0,0,0,0
