ABA,2025,2030,2035,2040,2045,2050
Alberta.a.biomass,341,319.1,256.1,256.1,19,10
Alberta.a.coal_pre2025,4915,4915,1366,0,0,0
Alberta.a.coal_ccs_pre2025,0,0,0,0,0,0
Alberta.a.diesel_pre2025,0,0,0,0,0,0
Alberta.a.gasCC_pre2025,13552.3,13552.3,8795.1,3187.1,1985,0
Alberta.a.gasCC_ccs_pre2025,0,0,0,0,0,0
Alberta.a.gasSC_pre2025,1339.1,1339.1,752,382,42,0
Alberta.a.hydro_daily,781,781,781,781,781,781
Alberta.a.hydro_monthly,0,0,0,0,0,0
Alberta.a.hydro_run,143.4,143.4,143.4,143.4,143.4,143.4
Alberta.a.nuclear,0,0,0,0,0,0
Alberta.a.SMR,0,0,0,0,0,0
British Columbia.a.biomass,962.76,892.7,708.6,608.7,341,112
British Columbia.a.coal_pre2025,0,0,0,0,0,0
British Columbia.a.coal_ccs_pre2025,0,0,0,0,0,0
British Columbia.a.diesel_pre2025,0,0,0,0,0,0
British Columbia.a.gasCC_pre2025,200.2,200.2,0,0,0,0
British Columbia.a.gasCC_ccs_pre2025,0,0,0,0,0,0
British Columbia.a.gasSC_pre2025,46,46,0,0,0,0
British Columbia.a.hydro_daily,4198.49,4198.49,4198.49,4198.49,4198.49,4198.49
British Columbia.a.hydro_monthly,11249,11249,11249,11249,11249,11249
British Columbia.a.hydro_run,1700.34,1700.34,1700.34,1700.34,1700.34,1700.34
British Columbia.a.nuclear,0,0,0,0,0,0
British Columbia.a.SMR,0,0,0,0,0,0
British Columbia.a.storage_LI,0,0,0,0,0,0
British Columbia.a.storage_PH,0,0,0,0,0,0
Manitoba.a.biomass,0,0,0,0,0,0
Manitoba.a.coal_pre2025,0,0,0,0,0,0
Manitoba.a.coal_ccs_pre2025,0,0,0,0,0,0
Manitoba.a.diesel_pre2025,0,0,0,0,0,0
Manitoba.a.gasCC_pre2025,0,0,0,0,0,0
Manitoba.a.gasCC_ccs_pre2025,0,0,0,0,0,0
Manitoba.a.gasSC_pre2025,280,280,0,0,0,0
Manitoba.a.hydro_daily,1284,1284,1284,1284,1284,1284
Manitoba.a.hydro_monthly,4648,4648,4648,4648,4648,4648
Manitoba.a.hydro_run,10,10,10,10,10,10
Manitoba.a.nuclear,0,0,0,0,0,0
Manitoba.a.SMR,0,0,0,0,0,0
Manitoba.a.storage_LI,0,0,0,0,0,0
Manitoba.a.storage_PH,0,0,0,0,0,0
New Brunswick.a.biomass,120.8,120.8,120.8,120.8,1.8,1.8
New Brunswick.a.coal_pre2025,466,466,0,0,0,0
New Brunswick.a.coal_ccs_pre2025,0,0,0,0,0,0
New Brunswick.a.diesel_pre2025,1472,1472,0,0,0,0
New Brunswick.a.gasCC_pre2025,388,98,0,0,0,0
New Brunswick.a.gasCC_ccs_pre2025,0,0,0,0,0,0
New Brunswick.a.gasSC_pre2025,28,28,0,0,0,0
New Brunswick.a.hydro_daily,878,878,878,878,878,878
New Brunswick.a.hydro_monthly,0,0,0,0,0,0
New Brunswick.a.hydro_run,34.1,34.1,34.1,34.1,34.1,34.1
New Brunswick.a.nuclear,660,660,660,660,0,0
New Brunswick.a.SMR,0,0,0,0,0,0
New Brunswick.a.storage_LI,0,0,0,0,0,0
New Brunswick.a.storage_PH,0,0,0,0,0,0
Newfoundland and Labrador.a.biomass,0,0,0,0,0,0
Newfoundland and Labrador.a.coal_pre2025,0,0,0,0,0,0
Newfoundland and Labrador.a.coal_ccs_pre2025,0,0,0,0,0,0
Newfoundland and Labrador.a.diesel_pre2025,781.7,781.7,146.5,12,0,0
Newfoundland and Labrador.a.gasCC_pre2025,0,0,0,0,0,0
Newfoundland and Labrador.a.gasCC_ccs_pre2025,0,0,0,0,0,0
Newfoundland and Labrador.a.gasSC_pre2025,0,0,0,0,0,0
Newfoundland and Labrador.a.hydro_daily,313.99,313.99,313.99,313.99,313.99,313.99
Newfoundland and Labrador.a.hydro_monthly,737.4,737.4,737.4,737.4,737.4,737.4
Newfoundland and Labrador.a.hydro_run,0,0,0,0,0,0
Newfoundland and Labrador.a.nuclear,0,0,0,0,0,0
Newfoundland and Labrador.a.SMR,0,0,0,0,0,0
Newfoundland and Labrador.a.storage_LI,0,0,0,0,0,0
Newfoundland and Labrador.a.storage_PH,0,0,0,0,0,0
Newfoundland and Labrador.b.biomass,0,0,0,0,0,0
Newfoundland and Labrador.b.coal_pre2025,0,0,0,0,0,0
Newfoundland and Labrador.b.coal_ccs_pre2025,0,0,0,0,0,0
Newfoundland and Labrador.b.diesel_pre2025,25,25,0,0,0,0
Newfoundland and Labrador.b.gasCC_pre2025,0,0,0,0,0,0
Newfoundland and Labrador.b.gasCC_ccs_pre2025,0,0,0,0,0,0
Newfoundland and Labrador.b.gasSC_pre2025,0,0,0,0,0,0
Newfoundland and Labrador.b.hydro_daily,0,0,0,0,0,0
Newfoundland and Labrador.b.hydro_monthly,6251.95,6251.95,6251.95,6251.95,6251.95,6251.95
Newfoundland and Labrador.b.hydro_run,0,0,0,0,0,0
Newfoundland and Labrador.b.nuclear,0,0,0,0,0,0
Newfoundland and Labrador.b.SMR,0,0,0,0,0,0
Newfoundland and Labrador.b.storage_LI,0,0,0,0,0,0
Newfoundland and Labrador.b.storage_PH,0,0,0,0,0,0
Nova Scotia.a.biomass,95,63.8,0,0,0,0
Nova Scotia.a.coal_pre2025,765,765,0,0,0,0
Nova Scotia.a.coal_ccs_pre2025,0,0,0,0,0,0
Nova Scotia.a.diesel_pre2025,413,413,33,0,0,0
Nova Scotia.a.gasCC_pre2025,49,49,49,0,0,0
Nova Scotia.a.gasCC_ccs_pre2025,0,0,0,0,0,0
Nova Scotia.a.gasSC_pre2025,94,94,0,0,0,0
Nova Scotia.a.hydro_daily,370.45,370.45,370.45,370.45,370.45,370.45
Nova Scotia.a.hydro_monthly,0,0,0,0,0,0
Nova Scotia.a.hydro_run,0,0,0,0,0,0
Nova Scotia.a.nuclear,0,0,0,0,0,0
Nova Scotia.a.SMR,0,0,0,0,0,0
Nova Scotia.a.storage_LI,0,0,0,0,0,0
Nova Scotia.a.storage_PH,0,0,0,0,0,0
Ontario.a.biomass,0,0,0,0,0,0
Ontario.a.coal_pre2025,0,0,0,0,0,0
Ontario.a.coal_ccs_pre2025,0,0,0,0,0,0
Ontario.a.diesel_pre2025,0,0,0,0,0,0
Ontario.a.gasCC_pre2025,2702,2702,1380,0,0,0
Ontario.a.gasCC_ccs_pre2025,0,0,0,0,0,0
Ontario.a.gasSC_pre2025,5253.8,5253.8,3160.8,0,0,0
Ontario.a.hydro_daily,1418,1418,1418,1418,1418,1418
Ontario.a.hydro_monthly,0,0,0,0,0,0
Ontario.a.hydro_run,1971,1971,1971,1971,1971,1971
Ontario.a.nuclear,10377,7275,7275,7275,5717,5717
Ontario.a.SMR,0,0,0,0,0,0
Ontario.a.storage_LI,272.55,272.55,272.55,250,0,0
Ontario.a.storage_PH,174,174,174,174,174,174
Ontario.b.biomass,0,0,0,0,0,0
Ontario.b.coal_pre2025,0,0,0,0,0,0
Ontario.b.coal_ccs_pre2025,0,0,0,0,0,0
Ontario.b.diesel_pre2025,0,0,0,0,0,0
Ontario.b.gasCC_pre2025,131,131,131,0,0,0
Ontario.b.gasCC_ccs_pre2025,0,0,0,0,0,0
Ontario.b.gasSC_pre2025,23,23,23,0,0,0
Ontario.b.hydro_daily,2939.5,2939.5,2939.5,2939.5,2939.5,2939.5
Ontario.b.hydro_monthly,0,0,0,0,0,0
Ontario.b.hydro_run,1135.4,1135.4,1135.4,1135.4,1135.4,1135.4
Ontario.b.nuclear,0,0,0,0,0,0
Ontario.b.SMR,0,0,0,0,0,0
Ontario.b.storage_LI,13,13,13,0,0,0
Ontario.b.storage_PH,0,0,0,0,0,0
Prince Edward Island.a.biomass,0,0,0,0,0,0
Prince Edward Island.a.coal_pre2025,0,0,0,0,0,0
Prince Edward Island.a.coal_ccs_pre2025,0,0,0,0,0,0
Prince Edward Island.a.diesel_pre2025,104,104,0,0,0,0
Prince Edward Island.a.gasCC_pre2025,0,0,0,0,0,0
Prince Edward Island.a.gasCC_ccs_pre2025,0,0,0,0,0,0
Prince Edward Island.a.gasSC_pre2025,0,0,0,0,0,0
Prince Edward Island.a.hydro_daily,0,0,0,0,0,0
Prince Edward Island.a.hydro_monthly,0,0,0,0,0,0
Prince Edward Island.a.hydro_run,0,0,0,0,0,0
Prince Edward Island.a.nuclear,0,0,0,0,0,0
Prince Edward Island.a.SMR,0,0,0,0,0,0
Prince Edward Island.a.storage_LI,11,11,11,11,0,0
Prince Edward Island.a.storage_PH,0,0,0,0,0,0
Quebec.a.biomass,139.05,129.15,75.55,70.75,27.75,9.75
Quebec.a.coal_pre2025,0,0,0,0,0,0
Quebec.a.coal_ccs_pre2025,0,0,0,0,0,0
Quebec.a.diesel_pre2025,0,0,0,0,0,0
Quebec.a.gasCC_pre2025,547,547,0,0,0,0
Quebec.a.gasCC_ccs_pre2025,0,0,0,0,0,0
Quebec.a.gasSC_pre2025,0,0,0,0,0,0
Quebec.a.hydro_daily,620,620,620,620,620,620
Quebec.a.hydro_monthly,55,55,55,55,55,55
Quebec.a.hydro_run,4187.9,4187.9,4187.9,4187.9,4187.9,4187.9
Quebec.a.nuclear,0,0,0,0,0,0
Quebec.a.SMR,0,0,0,0,0,0
Quebec.a.storage_LI,0,0,0,0,0,0
Quebec.a.storage_PH,0,0,0,0,0,0
Quebec.b.biomass,279.3,279.3,194.3,187.3,115.5,55.3
Quebec.b.coal_pre2025,0,0,0,0,0,0
Quebec.b.coal_ccs_pre2025,0,0,0,0,0,0
Quebec.b.diesel_pre2025,0,0,0,0,0,0
Quebec.b.gasCC_pre2025,0,0,0,0,0,0
Quebec.b.gasCC_ccs_pre2025,0,0,0,0,0,0
Quebec.b.gasSC_pre2025,0,0,0,0,0,0
Quebec.b.hydro_daily,11049.5,11049.5,11049.5,11049.5,11049.5,11049.5
Quebec.b.hydro_monthly,23146,23146,23146,23146,23146,23146
Quebec.b.hydro_run,1265.6,1265.6,1265.6,1265.6,1265.6,1265.6
Quebec.b.nuclear,0,0,0,0,0,0
Quebec.b.SMR,0,0,0,0,0,0
Quebec.b.storage_LI,0,0,0,0,0,0
Quebec.b.storage_PH,0,0,0,0,0,0
Saskatchewan.a.biomass,57,37,37,37,37,37
Saskatchewan.a.coal_pre2025,1142,1142,0,0,0,0
Saskatchewan.a.coal_ccs_pre2025,139,139,0,0,0,0
Saskatchewan.a.diesel_pre2025,0,0,0,0,0,0
Saskatchewan.a.gasCC_pre2025,1792,1564,1147,905,350,350
Saskatchewan.a.gasCC_ccs_pre2025,0,0,0,0,0,0
Saskatchewan.a.gasSC_pre2025,676,676,584,46,46,46
Saskatchewan.a.hydro_daily,520,520,520,520,520,520
Saskatchewan.a.hydro_monthly,0,0,0,0,0,0
Saskatchewan.a.hydro_run,13,13,13,13,13,13
Saskatchewan.a.nuclear,0,0,0,0,0,0
Saskatchewan.a.SMR,0,0,0,0,0,0
Saskatchewan.a.storage_LI,20,20,20,20,0,0
Saskatchewan.a.storage_PH,0,0,0,0,0,0
